..............
----------------------------------------------------------------------
Ran 14 tests in 0.050s

OK
Name             Stmts   Miss Branch BrPart  Cover   Missing
------------------------------------------------------------
Collatz.py          27      0     10      0   100%
TestCollatz.py      63      0      0      0   100%
------------------------------------------------------------
TOTAL               90      0     10      0   100%
