.................
----------------------------------------------------------------------
Ran 17 tests in 0.016s

OK
Name             Stmts   Miss Branch BrPart  Cover   Missing
------------------------------------------------------------
Collatz.py          50      0     22      0   100%
TestCollatz.py      76      0      0      0   100%
------------------------------------------------------------
TOTAL              126      0     22      0   100%
